[{
    "empId": 1,
    "firstName": "Ajay",
    "lastName": "Patel",
    "userName": "patelA",
    "password": "ajay123",
    "email": "ajay.patel@gmail.com",
    "catid": 1,
    "assignedComplains": 0,
    "status": true,
    "address": "B-703, HighRise soc., near Mahada Colony, Vimanagar, Pune"
  },
  {
    "empId": 2,
    "firstName": "Manmeet",
    "lastName": "Shah",
    "userName": "shahM",
    "password": "shah123",
    "email": "manmeet.shah@gmail.com",
    "catid": 1,
    "assignedComplains": 0,
    "status": true,
    "address": "B-501, Queensland soc., Kalyani nagar, Kharadi, Pune"
  },
  {
    "empId": 3,
    "firstName": "Chirag",
    "lastName": "Jain",
    "userName": "jainC",
    "password": "jain123",
    "email": "chirag.jain@gmail.com",
    "catid": 3,
    "assignedComplains": 0,
    "status": false,
    "address": "B-904, Lowrise soc., near j.k. colony, Pimpri, Pune"
  }
]
